i	p	dp	ratio
       1	 0.00000000000000E+00	 3.82216222037641E-02	 1.02659619498918E+00
       2	 3.88997697231646E-02	 3.88997697231646E-02	 1.01774251013694E+00
       3	 7.81659695300091E-02	 3.92661998068445E-02	 1.00941985225845E+00
       4	 1.17580067716212E-01	 3.94140981862032E-02	 1.00376655699014E+00
       5	 1.57035713475553E-01	 3.94556457593409E-02	 1.00105412974163E+00
       6	 1.96498569179831E-01	 3.94628557042776E-02	 1.00018273544376E+00
       7	 2.35962005146986E-01	 3.94634359671554E-02	 1.00001470402655E+00
       8	 2.75425441114142E-01	 3.94634359671553E-02	 9.99999999999999E-01
       9	 3.14888877081297E-01	 3.94634359671553E-02	 9.99999999999999E-01
      10	 3.54352313048452E-01	 3.94634359671553E-02	 1.00000000000000E+00
      11	 3.93815749015607E-01	 3.94634359671553E-02	 1.00000000000000E+00
      12	 4.33279184982763E-01	 3.94634359671553E-02	 1.00000000000000E+00
      13	 4.72742620949918E-01	 3.94634359671553E-02	 1.00000000000000E+00
      14	 5.12206056917073E-01	 3.94634359671553E-02	 1.00000000000000E+00
      15	 5.51669492884229E-01	 3.94634359671553E-02	 1.00000000000000E+00
      16	 5.91132928851384E-01	 3.94634359671553E-02	 1.00000000000000E+00
      17	 6.30596364818539E-01	 3.94634359671553E-02	 1.00000000000000E+00
      18	 6.70059800785694E-01	 3.94634359671551E-02	 9.99999999999994E-01
      19	 7.09523236752849E-01	 3.94634359671551E-02	 1.00000000000000E+00
      20	 7.48986672720005E-01	 3.94634359671552E-02	 1.00000000000000E+00
      21	 7.88450108687160E-01	 3.94634359671553E-02	 1.00000000000000E+00
      22	 8.27913544654315E-01	 3.94634359671552E-02	 9.99999999999997E-01
      23	 8.67376980621470E-01	 3.94634359671551E-02	 9.99999999999997E-01
      24	 9.06840416588625E-01	 3.94634359671553E-02	 1.00000000000001E+00
      25	 9.46303852555781E-01	 3.94634359671553E-02	 1.00000000000000E+00
      26	 9.85767288522936E-01	 3.94634359671553E-02	 1.00000000000000E+00
      27	 1.02523072449009E+00	 3.94634359671552E-02	 9.99999999999997E-01
      28	 1.06469379557111E+00	 3.94630710810178E-02	 9.99990753817338E-01
      29	 1.10415183252573E+00	 3.94580369546209E-02	 9.99872434499927E-01
      30	 1.14357820063223E+00	 3.94263681065032E-02	 9.99197404367731E-01
      31	 1.18288313893555E+00	 3.93049383033135E-02	 9.96920086505008E-01
      32	 1.22186765929743E+00	 3.89845203618826E-02	 9.91847896084755E-01
      33	 1.26022714787531E+00	 3.83594885778802E-02	 9.83967180352601E-01
      34	 1.29763471306986E+00	 3.74075651945549E-02	 9.75184148209051E-01
      35	 1.33384947529113E+00	 3.62147622212681E-02	 9.68113322343138E-01
      36	 1.36876281734839E+00	 3.49133420572607E-02	 9.64063821376050E-01
      37	 1.40236630997797E+00	 3.36034926295734E-02	 9.62482840355442E-01
      38	 1.43469609845717E+00	 3.23297884792000E-02	 9.62096078392385E-01
      39	 1.46579885632188E+00	 3.11027578647138E-02	 9.62046438526018E-01
      40	 1.49572109253399E+00	 2.99222362121050E-02	 9.62044470212458E-01
      41	 1.52450761441823E+00	 2.87865218842471E-02	 9.62044470212477E-01
      42	 1.55220152861362E+00	 2.76939141953902E-02	 9.62044470212472E-01
      43	 1.57884430562384E+00	 2.66427770102142E-02	 9.62044470212485E-01
      44	 1.60447584191762E+00	 2.56315362937802E-02	 9.62044470212459E-01
      45	 1.62913451967210E+00	 2.46586777544817E-02	 9.62044470212478E-01
      46	 1.65285726424855E+00	 2.37227445764503E-02	 9.62044470212466E-01
      47	 1.67567959948659E+00	 2.28223352380370E-02	 9.62044470212476E-01
      48	 1.69763570089967E+00	 2.19561014130887E-02	 9.62044470212469E-01
      49	 1.71875844685156E+00	 2.11227459518863E-02	 9.62044470212478E-01
      50	 1.73907946779028E+00	 2.03210209387148E-02	 9.62044470212456E-01
      51	 1.75862919361344E+00	 1.95497258231625E-02	 9.62044470212476E-01
      52	 1.77743689923578E+00	 1.88077056223435E-02	 9.62044470212473E-01
      53	 1.79553074842714E+00	 1.80938491913594E-02	 9.62044470212462E-01
      54	 1.81293783598655E+00	 1.74070875594061E-02	 9.62044470212496E-01
      55	 1.82968422831558E+00	 1.67463923290307E-02	 9.62044470212459E-01
      56	 1.84579500245173E+00	 1.61107741361524E-02	 9.62044470212458E-01
      57	 1.86129428362026E+00	 1.54992811685275E-02	 9.62044470212472E-01
      58	 1.87620528136071E+00	 1.49109977404500E-02	 9.62044470212461E-01
      59	 1.89055032428226E+00	 1.43450429215508E-02	 9.62044470212486E-01
      60	 1.90435089349990E+00	 1.38005692176386E-02	 9.62044470212479E-01
      61	 1.91762765480151E+00	 1.32767613016136E-02	 9.62044470212465E-01
      62	 1.93040048959406E+00	 1.27728347925482E-02	 9.62044470212465E-01
      63	 1.94268852467517E+00	 1.22880350811085E-02	 9.62044470212478E-01
      64	 1.95451030236792E+00	 1.18217776927521E-02	 9.62055984925263E-01
      65	 1.96588515609035E+00	 1.13748537224347E-02	 9.62194859188451E-01
      66	 1.97683863342560E+00	 1.09534773352500E-02	 9.62955445628837E-01
      67	 1.98741369945963E+00	 1.05750660340260E-02	 9.65452861256564E-01
      68	 1.99768112729669E+00	 1.02674278370642E-02	 9.70909099198820E-01
      69	 2.00773508268897E+00	 1.00539553922780E-02	 9.79208770865125E-01
      70	 2.01766976292742E+00	 9.93468023844901E-03	 9.88136494625723E-01
      71	 2.02755387081283E+00	 9.88410788540683E-03	 9.94909513761052E-01
      72	 2.03742284423313E+00	 9.86897342029680E-03	 9.98468808183247E-01
      73	 2.04728896786999E+00	 9.86612363686268E-03	 9.99711238108286E-01
      74	 2.05715482972476E+00	 9.86586185476845E-03	 9.99973466570676E-01
      75	 2.06702068871655E+00	 9.86585899178882E-03	 9.99999709809475E-01
      76	 2.07688654770833E+00	 9.86585899178882E-03	 1.00000000000000E+00
      77	 2.08675240670012E+00	 9.86585899178882E-03	 1.00000000000000E+00
      78	 2.09661826569191E+00	 9.86585899178882E-03	 1.00000000000000E+00
      79	 2.10648412468370E+00	 9.86585899178882E-03	 1.00000000000000E+00
      80	 2.11634998367549E+00	 9.86585899178882E-03	 1.00000000000000E+00
      81	 2.12621584266728E+00	 9.86585899178838E-03	 9.99999999999955E-01
      82	 2.13608170165907E+00	 9.86585899178927E-03	 1.00000000000009E+00
      83	 2.14594756065086E+00	 9.86585899178838E-03	 9.99999999999910E-01
      84	 2.15581341964264E+00	 9.86585899178882E-03	 1.00000000000005E+00
      85	 2.16567927863443E+00	 9.86585899178882E-03	 1.00000000000000E+00
      86	 2.17554513762622E+00	 9.86585899178927E-03	 1.00000000000005E+00
      87	 2.18541099661801E+00	 9.86585899178882E-03	 9.99999999999955E-01
      88	 2.19527685560980E+00	 9.86585899178882E-03	 1.00000000000000E+00
      89	 2.20514271460159E+00	 9.86585899178882E-03	 1.00000000000000E+00
      90	 2.21500857359338E+00	 9.86585899178882E-03	 1.00000000000000E+00
      91	 2.22487443258517E+00	 9.86585899178927E-03	 1.00000000000005E+00
      92	 2.23474029157696E+00	 9.86585899178882E-03	 9.99999999999955E-01
      93	 2.24460615056874E+00	 9.86585899178882E-03	 1.00000000000000E+00
      94	 2.25447200956053E+00	 9.86585899178838E-03	 9.99999999999955E-01
      95	 2.26433786855232E+00	 9.86585899178927E-03	 1.00000000000009E+00
      96	 2.27420372754411E+00	 9.86585899178882E-03	 9.99999999999955E-01
      97	 2.28406958653590E+00	 9.86585899178882E-03	 1.00000000000000E+00
      98	 2.29393544552769E+00	 9.86585899178838E-03	 9.99999999999955E-01
      99	 2.30380130451948E+00	 9.86585899178927E-03	 1.00000000000009E+00
     100	 2.31366716351127E+00	 9.86585899178882E-03	 9.99999999999955E-01
     101	 2.32353302250306E+00	 9.86585899178882E-03	 1.00000000000000E+00
     102	 2.33339888149484E+00	 9.86585899178838E-03	 9.99999999999955E-01
     103	 2.34326474048663E+00	 9.86585899178882E-03	 1.00000000000005E+00
     104	 2.35313059947842E+00	 9.86585899178882E-03	 1.00000000000000E+00
     105	 2.36299645847021E+00	 9.86585899178927E-03	 1.00000000000005E+00
     106	 2.37286231746200E+00	 9.86585899178882E-03	 9.99999999999955E-01
     107	 2.38272817645379E+00	 9.86585899178882E-03	 1.00000000000000E+00
     108	 2.39259403544558E+00	 9.86585899178882E-03	 1.00000000000000E+00
     109	 2.40245989443737E+00	 9.86585899178882E-03	 1.00000000000000E+00
     110	 2.41232575342915E+00	 9.86585899178882E-03	 1.00000000000000E+00
     111	 2.42219161242094E+00	 9.86585899178882E-03	 1.00000000000000E+00
     112	 2.43205747141273E+00	 9.86585899178882E-03	 1.00000000000000E+00
     113	 2.44192333040452E+00	 9.86585899178882E-03	 1.00000000000000E+00
     114	 2.45178918939631E+00	 9.86585899178882E-03	 1.00000000000000E+00
     115	 2.46165504838810E+00	 9.86585899178882E-03	 1.00000000000000E+00
     116	 2.47152090737989E+00	 9.86585899178882E-03	 1.00000000000000E+00
     117	 2.48138676637168E+00	 9.86585899178882E-03	 1.00000000000000E+00
     118	 2.49125262536347E+00	 9.86585899178882E-03	 1.00000000000000E+00
     119	 2.50111848435525E+00	 9.86585899178882E-03	 1.00000000000000E+00
     120	 2.51098434334704E+00	 9.86585899178838E-03	 9.99999999999955E-01
     121	 2.52085020233883E+00	 9.86585899178882E-03	 1.00000000000005E+00
     122	 2.53071606133062E+00	 9.86585899178882E-03	 1.00000000000000E+00
     123	 2.54058192032241E+00	 9.86585899178927E-03	 1.00000000000005E+00
     124	 2.55044777931420E+00	 9.86585899178838E-03	 9.99999999999910E-01
     125	 2.56031363830599E+00	 9.86585899178882E-03	 1.00000000000005E+00
     126	 2.57017949729778E+00	 9.86585899178882E-03	 1.00000000000000E+00
     127	 2.58004535628956E+00	 9.86585899178927E-03	 1.00000000000005E+00
     128	 2.58991121528135E+00	 9.86585899178838E-03	 9.99999999999910E-01
     129	 2.59977707427314E+00	 9.86585899178882E-03	 1.00000000000005E+00
     130	 2.60964293326493E+00	 9.86585899178882E-03	 1.00000000000000E+00
     131	 2.61950879225672E+00	 9.86585899178927E-03	 1.00000000000005E+00
     132	 2.62937465124851E+00	 9.86585899178838E-03	 9.99999999999910E-01
     133	 2.63924051024030E+00	 9.86585899178882E-03	 1.00000000000005E+00
     134	 2.64910636923209E+00	 9.86585899178882E-03	 1.00000000000000E+00
     135	 2.65897222822388E+00	 9.86585899178927E-03	 1.00000000000005E+00
     136	 2.66883808721566E+00	 9.86585899178838E-03	 9.99999999999910E-01
     137	 2.67870394620745E+00	 9.86585899178927E-03	 1.00000000000009E+00
     138	 2.68856980519924E+00	 9.86585899178882E-03	 9.99999999999955E-01
     139	 2.69843566419103E+00	 9.86585899178882E-03	 1.00000000000000E+00
     140	 2.70830152318282E+00	 9.86585899178882E-03	 1.00000000000000E+00
     141	 2.71816738217461E+00	 9.86585899178882E-03	 1.00000000000000E+00
     142	 2.72803324116640E+00	 9.86585899178838E-03	 9.99999999999955E-01
     143	 2.73789910015819E+00	 9.86585899178927E-03	 1.00000000000009E+00
     144	 2.74776495914997E+00	 9.86585899178882E-03	 9.99999999999955E-01
     145	 2.75763081814176E+00	 9.86585899178882E-03	 1.00000000000000E+00
     146	 2.76749667713355E+00	 9.86585899178882E-03	 1.00000000000000E+00
     147	 2.77736253612534E+00	 9.86585899178882E-03	 1.00000000000000E+00
     148	 2.78722839511713E+00	 9.86585899178882E-03	 1.00000000000000E+00
     149	 2.79709425410892E+00	 9.86585899178882E-03	 1.00000000000000E+00
     150	 2.80696011310071E+00	 9.86585899178838E-03	 9.99999999999955E-01
     151	 2.81682597209250E+00	 9.86585899178927E-03	 1.00000000000009E+00
     152	 2.82669183108429E+00	 9.86585899178882E-03	 9.99999999999955E-01
     153	 2.83655769007607E+00	 9.86585899178882E-03	 1.00000000000000E+00
     154	 2.84642354906786E+00	 9.86585899178882E-03	 1.00000000000000E+00
     155	 2.85628940805965E+00	 9.86585899178882E-03	 1.00000000000000E+00
     156	 2.86615526705144E+00	 9.86585899178927E-03	 1.00000000000005E+00
     157	 2.87602112604323E+00	 9.86585899178882E-03	 9.99999999999955E-01
     158	 2.88588698503502E+00	 9.86585899178882E-03	 1.00000000000000E+00
     159	 2.89575284402681E+00	 9.86585899178838E-03	 9.99999999999955E-01
     160	 2.90561870301860E+00	 9.86585899178882E-03	 1.00000000000005E+00
     161	 2.91548456201038E+00	 9.86585899178882E-03	 1.00000000000000E+00
     162	 2.92535042100217E+00	 9.86585899178838E-03	 9.99999999999955E-01
     163	 2.93521627999396E+00	 9.86585899178927E-03	 1.00000000000009E+00
     164	 2.94508213898575E+00	 9.86585899178882E-03	 9.99999999999955E-01
     165	 2.95494804804160E+00	 9.86590905585327E-03	 1.00000507447598E+00
     166	 2.96481479481753E+00	 9.86674677592658E-03	 1.00008491058133E+00
     167	 2.97468756065948E+00	 9.87276584194818E-03	 1.00061003552217E+00
     168	 2.98458586763991E+00	 9.89830698043015E-03	 1.00258702970281E+00
     169	 2.99455746718680E+00	 9.97159954689097E-03	 1.00740455580997E+00
     170	 3.00468312676848E+00	 1.01256595816808E-02	 1.01544988184346E+00
     171	 3.01506072032398E+00	 1.03775935554959E-02	 1.02488074695608E+00
     172	 3.02577739620400E+00	 1.07166758800261E-02	 1.03267446568579E+00
     173	 3.03689244215462E+00	 1.11150459506177E-02	 1.03717291397551E+00
     174	 3.04844030378888E+00	 1.15478616342637E-02	 1.03893962162360E+00
     175	 3.06044298292285E+00	 1.20026791339614E-02	 1.03938543031622E+00
     176	 3.07291915861262E+00	 1.24761756897733E-02	 1.03944923883470E+00
     177	 3.08588755672317E+00	 1.29683981105555E-02	 1.03945298888229E+00
     178	 3.09936759690021E+00	 1.34800401770319E-02	 1.03945298888225E+00
     179	 3.11337946495248E+00	 1.40118680522687E-02	 1.03945298888226E+00
     180	 3.12794414307923E+00	 1.45646781267539E-02	 1.03945298888221E+00
     181	 3.14308344129019E+00	 1.51392982109622E-02	 1.03945298888224E+00
     182	 3.15882003006516E+00	 1.57365887749652E-02	 1.03945298888231E+00
     183	 3.17517747430211E+00	 1.63574442369487E-02	 1.03945298888227E+00
     184	 3.19218026860468E+00	 1.70027943025710E-02	 1.03945298888224E+00
     185	 3.20985387396183E+00	 1.76736053571576E-02	 1.03945298888225E+00
     186	 3.22822475587466E+00	 1.83708819128223E-02	 1.03945298888222E+00
     187	 3.24732042398734E+00	 1.90956681126866E-02	 1.03945298888228E+00
     188	 3.26716947328178E+00	 1.98490492944354E-02	 1.03945298888224E+00
     189	 3.28780162387017E+00	 2.06321505883951E-02	 1.03945283637233E+00
     190	 3.30924753053384E+00	 2.14459066636654E-02	 1.03944116595039E+00
     191	 3.33153691970361E+00	 2.22893891697700E-02	 1.03933069929534E+00
     192	 3.35469185737886E+00	 2.31549376752551E-02	 1.03883231159421E+00
     193	 3.37871435638579E+00	 2.40224990069224E-02	 1.03746765997969E+00
     194	 3.40357681120147E+00	 2.48624548156871E-02	 1.03496538010149E+00
     195	 3.42922847184203E+00	 2.56516606405524E-02	 1.03174287618483E+00
     196	 3.45561771578733E+00	 2.63892439453066E-02	 1.02875382280663E+00
     197	 3.48270986758893E+00	 2.70921518015950E-02	 1.02663614985504E+00
     198	 3.51047918354720E+00	 2.77693159582757E-02	 1.02499484580036E+00
     199	 3.53887546272982E+00	 2.83962791826200E-02	 1.02257755377505E+00
     200	 3.56779268968863E+00	 2.89172269588098E-02	 1.01834563510379E+00
     201	 3.59707407705300E+00	 2.92813873643691E-02	 1.01259319941286E+00
     202	 3.62655779225451E+00	 2.94837152015099E-02	 1.00690977632388E+00
     203	 3.65612592779349E+00	 2.95681355389794E-02	 1.00286328696680E+00
     204	 3.68571868042017E+00	 2.95927526266797E-02	 1.00083255461501E+00
     205	 3.71531588281875E+00	 2.95972023985787E-02	 1.00015036694812E+00
     206	 3.74491345969179E+00	 2.95975768730439E-02	 1.00001265236018E+00
     207	 3.77451103666716E+00	 2.95975769753665E-02	 1.00000000345713E+00
     208	 3.80410861364253E+00	 2.95975769753665E-02	 1.00000000000000E+00
     209	 3.83370619061789E+00	 2.95975769753665E-02	 1.00000000000000E+00
     210	 3.86330376759326E+00	 2.95975769753669E-02	 1.00000000000002E+00
     211	 3.89290134456863E+00	 2.95975769753660E-02	 9.99999999999970E-01
     212	 3.92249892154399E+00	 2.95975769753669E-02	 1.00000000000003E+00
     213	 3.95209649904008E+00	 2.95975774960873E-02	 1.00000001759334E+00
     214	 3.98169468252933E+00	 2.95981834892496E-02	 1.00002047441762E+00
     215	 4.01129970036316E+00	 2.96050178338310E-02	 1.00023090418991E+00
     216	 4.04093892476712E+00	 2.96392244039563E-02	 1.00115543149872E+00
     217	 4.07067615672280E+00	 2.97372319556866E-02	 1.00330668408844E+00
     218	 4.10058234297687E+00	 2.99061862540695E-02	 1.00568157448665E+00
     219	 4.13063610570693E+00	 3.00537627300574E-02	 1.00493464712398E+00
     220	 4.16063143652251E+00	 2.99953308155843E-02	 9.98055753783710E-01
     221	 4.19021489452848E+00	 2.95834580059635E-02	 9.86268769224350E-01
     222	 4.21904272274665E+00	 2.88278282181684E-02	 9.74457692280505E-01
     223	 4.24690841053611E+00	 2.78656877894639E-02	 9.66624595462998E-01
     224	 4.27374765360416E+00	 2.68392430680526E-02	 9.63164565354840E-01
     225	 4.29957240747047E+00	 2.58247538663046E-02	 9.62201273740255E-01
     226	 4.32441719767717E+00	 2.48447902067017E-02	 9.62053320443008E-01
     227	 4.34831899070912E+00	 2.39017930319463E-02	 9.62044470212469E-01
     228	 4.37131357852366E+00	 2.29945878145470E-02	 9.62044470212475E-01
     229	 4.39343539457546E+00	 2.21218160517997E-02	 9.62044470212460E-01
     230	 4.41471756537915E+00	 2.12821708036905E-02	 9.62044470212431E-01
     231	 4.43519196011496E+00	 2.04743947358095E-02	 9.62044470212550E-01
     232	 4.45488923835149E+00	 1.96972782365323E-02	 9.62044470212447E-01
     233	 4.47383889595719E+00	 1.89496576056918E-02	 9.62044470212440E-01
     234	 4.49206930926916E+00	 1.82304133119766E-02	 9.62044470212531E-01
     235	 4.50960777758564E+00	 1.75384683164745E-02	 9.62044470212450E-01
     236	 4.52648056404550E+00	 1.68727864598601E-02	 9.62044470212423E-01
     237	 4.54271293495628E+00	 1.62323709107852E-02	 9.62044470212526E-01
     238	 4.55832919762944E+00	 1.56162626731584E-02	 9.62044470212454E-01
     239	 4.57335273677954E+00	 1.50235391500972E-02	 9.62044470212457E-01
     240	 4.58780604954191E+00	 1.44533127623712E-02	 9.62044470212441E-01
     241	 4.60171077916120E+00	 1.39047296192905E-02	 9.62044470212467E-01
     242	 4.61508774740124E+00	 1.33769682400375E-02	 9.62044470212442E-01
     243	 4.62795698572477E+00	 1.28692383235371E-02	 9.62044470212560E-01
     244	 4.64033776528978E+00	 1.23807795650057E-02	 9.62044470212502E-01
     245	 4.65224871171185E+00	 1.19109464220664E-02	 9.62051408760451E-01
     246	 4.66370877835917E+00	 1.14600666473192E-02	 9.62145764176068E-01
     247	 4.67474157810773E+00	 1.10327997485662E-02	 9.62716892326887E-01
     248	 4.68538558894272E+00	 1.06440108349899E-02	 9.64760629900237E-01
     249	 4.69570581445094E+00	 1.03202255082140E-02	 9.69580515108879E-01
     250	 4.70579330601613E+00	 1.00874915651916E-02	 9.77448754115195E-01
     251	 4.71574467688568E+00	 9.95137086955111E-03	 9.86505991627273E-01
     252	 4.72563492205577E+00	 9.89024517008730E-03	 9.93857559901536E-01
     253	 4.73550544163596E+00	 9.87051958019691E-03	 9.98005550969551E-01
     254	 4.74537180060093E+00	 9.86635896496324E-03	 9.99578480626084E-01
     255	 4.75523767853859E+00	 9.86587793766702E-03	 9.99951245713041E-01
     256	 4.76510353753038E+00	 9.86585899178927E-03	 9.99998079656177E-01
     257	 4.77496939652217E+00	 9.86585899178838E-03	 9.99999999999910E-01
     258	 4.78483525551396E+00	 9.86585899178838E-03	 1.00000000000000E+00
     259	 4.79470111450575E+00	 9.86585899178927E-03	 1.00000000000009E+00
     260	 4.80456697349754E+00	 9.86585899178927E-03	 1.00000000000000E+00
     261	 4.81443283248933E+00	 9.86585899178927E-03	 1.00000000000000E+00
     262	 4.82429869148111E+00	 9.86585899178749E-03	 9.99999999999820E-01
     263	 4.83416455047290E+00	 9.86585899178927E-03	 1.00000000000018E+00
     264	 4.84403040946469E+00	 9.86585899178927E-03	 1.00000000000000E+00
     265	 4.85389626845648E+00	 9.86585899178838E-03	 9.99999999999910E-01
     266	 4.86376212744827E+00	 9.86585899178838E-03	 1.00000000000000E+00
     267	 4.87362798644006E+00	 9.86585899178927E-03	 1.00000000000009E+00
     268	 4.88349384543185E+00	 9.86585899178927E-03	 1.00000000000000E+00
     269	 4.89335970442364E+00	 9.86585899178927E-03	 1.00000000000000E+00
     270	 4.90322556341543E+00	 9.86585899178749E-03	 9.99999999999820E-01
     271	 4.91309142240721E+00	 9.86585899178927E-03	 1.00000000000018E+00
     272	 4.92295728139900E+00	 9.86585899178927E-03	 1.00000000000000E+00
     273	 4.93282314039079E+00	 9.86585899178838E-03	 9.99999999999910E-01
     274	 4.94268899938258E+00	 9.86585899178838E-03	 1.00000000000000E+00
     275	 4.95255485837437E+00	 9.86585899178927E-03	 1.00000000000009E+00
     276	 4.96242071736616E+00	 9.86585899178838E-03	 9.99999999999910E-01
     277	 4.97228657635795E+00	 9.86585899178838E-03	 1.00000000000000E+00
     278	 4.98215243534974E+00	 9.86585899178927E-03	 1.00000000000009E+00
     279	 4.99201829434153E+00	 9.86585899178927E-03	 1.00000000000000E+00
     280	 5.00188415333331E+00	 9.86585899178927E-03	 1.00000000000000E+00
     281	 5.01175001232510E+00	 9.86585899178749E-03	 9.99999999999820E-01
     282	 5.02161587131689E+00	 9.86585899178927E-03	 1.00000000000018E+00
     283	 5.03148173030868E+00	 9.86585899178927E-03	 1.00000000000000E+00
     284	 5.04134758930047E+00	 9.86585899178838E-03	 9.99999999999910E-01
     285	 5.05121344829226E+00	 9.86585899178838E-03	 1.00000000000000E+00
     286	 5.06107930728405E+00	 9.86585899178927E-03	 1.00000000000009E+00
     287	 5.07094516627584E+00	 9.86585899178927E-03	 1.00000000000000E+00
     288	 5.08081102526763E+00	 9.86585899178927E-03	 1.00000000000000E+00
     289	 5.09067688425941E+00	 9.86585899178749E-03	 9.99999999999820E-01
     290	 5.10054274325120E+00	 9.86585899178927E-03	 1.00000000000018E+00
     291	 5.11040860224299E+00	 9.86585899178927E-03	 1.00000000000000E+00
     292	 5.12027446123478E+00	 9.86585899178838E-03	 9.99999999999910E-01
     293	 5.13014032022657E+00	 9.86585899178838E-03	 1.00000000000000E+00
     294	 5.14000617921836E+00	 9.86585899178927E-03	 1.00000000000009E+00
     295	 5.14987203821015E+00	 9.86585899178927E-03	 1.00000000000000E+00
     296	 5.15973789720194E+00	 9.86585899178927E-03	 1.00000000000000E+00
     297	 5.16960375619372E+00	 9.86585899178749E-03	 9.99999999999820E-01
     298	 5.17946961518551E+00	 9.86585899178927E-03	 1.00000000000018E+00
     299	 5.18933547417730E+00	 9.86585899178927E-03	 1.00000000000000E+00
     300	 5.19920133316909E+00	 9.86585899178838E-03	 9.99999999999910E-01
     301	 5.20906719216088E+00	 9.86585899178838E-03	 1.00000000000000E+00
     302	 5.21893305115267E+00	 9.86585899178927E-03	 1.00000000000009E+00
     303	 5.22879891014446E+00	 9.86585899178838E-03	 9.99999999999910E-01
     304	 5.23866476913624E+00	 9.86585899178838E-03	 1.00000000000000E+00
     305	 5.24853062812803E+00	 9.86585899178927E-03	 1.00000000000009E+00
     306	 5.25839648711982E+00	 9.86585899178927E-03	 1.00000000000000E+00
     307	 5.26826234611161E+00	 9.86585899178927E-03	 1.00000000000000E+00
     308	 5.27812820510340E+00	 9.86585899178749E-03	 9.99999999999820E-01
     309	 5.28799406409519E+00	 9.86585899178927E-03	 1.00000000000018E+00
     310	 5.29785992308698E+00	 9.86585899178927E-03	 1.00000000000000E+00
     311	 5.30772578207877E+00	 9.86585899178927E-03	 1.00000000000000E+00
     312	 5.31759164107056E+00	 9.86585899178927E-03	 1.00000000000000E+00
     313	 5.32745750006234E+00	 9.86585899178749E-03	 9.99999999999820E-01
     314	 5.33732335905413E+00	 9.86585899178838E-03	 1.00000000000009E+00
     315	 5.34718921804592E+00	 9.86585899178838E-03	 1.00000000000000E+00
     316	 5.35705507703771E+00	 9.86585899178927E-03	 1.00000000000009E+00
     317	 5.36692093602950E+00	 9.86585899178927E-03	 1.00000000000000E+00
     318	 5.37678679502129E+00	 9.86585899178927E-03	 1.00000000000000E+00
     319	 5.38665265401308E+00	 9.86585899178838E-03	 9.99999999999910E-01
     320	 5.39651851300487E+00	 9.86585899178838E-03	 1.00000000000000E+00
     321	 5.40638437199665E+00	 9.86585899178927E-03	 1.00000000000009E+00
     322	 5.41625023098844E+00	 9.86585899178927E-03	 1.00000000000000E+00
     323	 5.42611608998023E+00	 9.86585899178927E-03	 1.00000000000000E+00
     324	 5.43598194897202E+00	 9.86585899178838E-03	 9.99999999999910E-01
     325	 5.44584780796381E+00	 9.86585899178749E-03	 9.99999999999910E-01
     326	 5.45571373204722E+00	 9.86592408340581E-03	 1.00000659766356E+00
     327	 5.46558065148837E+00	 9.86691944115314E-03	 1.00010088844582E+00
     328	 5.47545433340343E+00	 9.87368191506377E-03	 1.00068536831084E+00
     329	 5.48535561953311E+00	 9.90128612967478E-03	 1.00279573667133E+00
     330	 5.49533386958185E+00	 9.97825004874286E-03	 1.00777312341650E+00
     331	 5.50547033979487E+00	 1.01364702130242E-02	 1.01585650424758E+00
     332	 5.51586112990540E+00	 1.03907901105265E-02	 1.02508959155974E+00
     333	 5.52658988434652E+00	 1.07287544411241E-02	 1.03252537362440E+00
     334	 5.53771238139645E+00	 1.11224970499277E-02	 1.03669975027990E+00
     335	 5.54926071474280E+00	 1.15483333463517E-02	 1.03828603365885E+00
     336	 5.56125560925727E+00	 1.19948945144621E-02	 1.03866888448033E+00
     337	 5.57371494530996E+00	 1.24593360526895E-02	 1.03871993519137E+00
     338	 5.58665673840962E+00	 1.29417930996665E-02	 1.03872253264032E+00
     339	 5.60009967051502E+00	 1.34429321053942E-02	 1.03872253264044E+00
     340	 5.61406314699764E+00	 1.39634764826280E-02	 1.03872253264040E+00
     341	 5.62856732465414E+00	 1.45041776564998E-02	 1.03872253264039E+00
     342	 5.64363314080337E+00	 1.50658161492263E-02	 1.03872253264044E+00
     343	 5.65928234351019E+00	 1.56492027068191E-02	 1.03872253264041E+00
     344	 5.67553752297962E+00	 1.62551794694297E-02	 1.03872253264037E+00
     345	 5.69242214416663E+00	 1.68846211870104E-02	 1.03872253264041E+00
     346	 5.70996058064867E+00	 1.75384364820452E-02	 1.03872253264040E+00
     347	 5.72817814980986E+00	 1.82175691611821E-02	 1.03872253264036E+00
     348	 5.74710114938751E+00	 1.89229995776543E-02	 1.03872253264038E+00
     349	 5.76675689543397E+00	 1.96557460464550E-02	 1.03872253264044E+00
     350	 5.78717376174828E+00	 2.04168663143101E-02	 1.03872253264039E+00
     351	 5.80838122083486E+00	 2.12074590865798E-02	 1.03872253264036E+00
     352	 5.83040988644814E+00	 2.20286656132815E-02	 1.03872253264048E+00
     353	 5.85329155778465E+00	 2.28816713365143E-02	 1.03872253264031E+00
     354	 5.87705926538636E+00	 2.37677076017109E-02	 1.03872253264046E+00
     355	 5.90174731882147E+00	 2.46880534351046E-02	 1.03872253264036E+00
     356	 5.92739135621154E+00	 2.56440373900730E-02	 1.03872253264039E+00
     357	 5.95402839567648E+00	 2.66370394649433E-02	 1.03872253264046E+00
     358	 5.98169688877155E+00	 2.76684930950664E-02	 1.03872253264033E+00
     359	 6.01043677599360E+00	 2.87398872220521E-02	 1.03872253264045E+00
     360	 6.04028954443669E+00	 2.98527684430878E-02	 1.03872253264034E+00
     361	 6.07129828768022E+00	 3.10087432435315E-02	 1.03872253264040E+00
     362	 6.10350775996761E+00	 3.22094722873931E-02	 1.03872227372878E+00
     363	 6.13696349473509E+00	 3.34557347674727E-02	 1.03869242156343E+00
     364	 6.17170397092521E+00	 3.47404761901178E-02	 1.03840123170435E+00
     365	 6.20773227656975E+00	 3.60283056445416E-02	 1.03707000005919E+00
     366	 6.24496368497582E+00	 3.72314084060745E-02	 1.03339326510114E+00
     367	 6.28318530717959E+00	 3.82216222037641E-02	 1.02659619498918E+00
