{
    "lower_bnd_t": 0.0,
    "upper_bnd_t": 3.141592653589793,
    "lower_bnd_p": 0.0,
    "upper_bnd_p": 6.283185307179586,
    "lower_bnd_r": 1.0,
    "upper_bnd_r": 30.0,
    "BG_RATIO": 1.05,
    "FG_RATIO": 1.03,
    "RADIAL_BG_RATIO": 1.03,
    "RADIAL_FG_RATIO": 1.03,
    "box_list": [
        {
            "t0": 1.176352,
            "t1": 1.339715,
            "p0": 5.102121,
            "p1": 5.330934,
            "r0": 1.0,
            "r1": 1.078,
            "ds": 0.004,
            "radial_ds": 0.004,
            "radial_var_ds": null,
            "tp_var_ds": null
        },
        {
            "t0": 1.185797,
            "t1": 1.324664,
            "p0": 5.084283,
            "p1": 5.356023,
            "r0": 1.0,
            "r1": 1.065,
            "ds": 0.002187,
            "radial_ds": 0.002187,
            "radial_var_ds": null,
            "tp_var_ds": null
        },
        {
            "t0": 1.376352,
            "t1": 1.539715,
            "p0": 3.102121,
            "p1": 3.330934,
            "r0": 1.0,
            "r1": 1.3,
            "ds": 0.005,
            "radial_ds": 0.005,
            "radial_var_ds": null,
            "tp_var_ds": null
        },
        {
            "t0": 1.385797,
            "t1": 1.524664,
            "p0": 3.084283,
            "p1": 3.356023,
            "r0": 1.0,
            "r1": 1.075,
            "ds": 0.002,
            "radial_ds": 0.002,
            "radial_var_ds": null,
            "tp_var_ds": null
        },
        {
            "t0": 0.81889819,
            "t1": 1.69156281,
            "p0": 4.78382069,
            "p1": 5.65648531,
            "r0": 1.0,
            "r1": 1.4,
            "ds": 0.02,
            "radial_ds": 0.02,
            "radial_var_ds": null,
            "tp_var_ds": null
        },
        {
            "t0": 0.52359878,
            "t1": 2.61799388,
            "p0": 2.77669205,
            "p1": 7.66361395,
            "r0": 1.0,
            "r1": 1.4,
            "ds": 0.03,
            "radial_ds": 0.04,
            "radial_var_ds": null,
            "tp_var_ds": null
        }
    ]
}
